…
    ## Rows: 146 Columns: 27-- Column specification --------------------------------------------------------
    ## Delimiter: ","
    ## chr  (2): system_name, region
    ## dbl (25): system, alg_1, alg_2, bio, chem, ela, eng_1, eng_2, eng_3, math, s...
    ## i Use `spec()` to retrieve the full column specification for this data.
    ## i Specify the column types or set `show_col_types = FALSE` to quiet this message.

``` r
districts
```

    ## # A tibble: 146 x 27
    ##    system system~1 alg_1 alg_2   bio  chem   ela eng_1 eng_2 eng_3  math science
    ##     <dbl> <chr>    <dbl> <dbl> <dbl> <dbl> <dbl> <dbl> <dbl> <dbl> <dbl>   <dbl>
    ##  1      0 State o~  70    54.3  65.3  44.2  48.4  71.8  64.8  41.7  54.7    64.5
    ##  2     10 Anderso~  76.1  63.3  73.6  41    45.7  73.7  59.2  38.2  54      64.5
    ##  3     11 Clinton~  NA    NA    NA    NA    58.3  NA    NA    NA    68.9    69.6
    ##  4     12 Oak Rid~  76.9  72    83.5  80.9  56.1  86.7  74.6  53.8  55.3    70.8
    ##  5     20 Bedford~  64.3  42.4  62.1  32.5  44.1  72.3  63.1  44.6  53.1    61.8
    ##  6     30 Benton ~  73.7  58.4  77.1  33.1  46    75.4  60.8  45.6  53.9    65  
    ##  7     40 Bledsoe~  64.8  73.9  73    19.5  35.4  63.6  53.3  50    41.1    56.2
    ##  8     50 Blount ~  73.2  59.8  65.1  45.4  46.3  71.8  66    45.3  50.5    68.4
    ##  9     51 Alcoa C~  82.2  76.8  88    66    50.2  85.5  79.6  67.2  56.6    65.1
    ## 10     52 Maryvil~  83.8  77.3  92.1  80.4  69.6  89.9  82.7  68.1  70.2    87.1
    ## # ... with 136 more rows, 15 more variables: enrollment <dbl>, black <dbl>,
    ## #   hispanic <dbl>, native <dbl>, el <dbl>, swd <dbl>, ed <dbl>,
    ## #   expenditures <dbl>, act_composite <dbl>, chronic_abs <dbl>,
    ## #   suspended <dbl>, expelled <dbl>, grad <dbl>, dropout <dbl>, region <chr>,
    ## #   and abbreviated variable name 1: system_name
…
